<?xml version="1.0" encoding="utf-8"?>
<!-- Generator: Adobe Illustrator 21.1.0, SVG Export Plug-In . SVG Version: 6.00 Build 0)  -->
<svg version="1.1" xmlns="http://www.w3.org/2000/svg" xmlns:xlink="http://www.w3.org/1999/xlink" x="0px" y="0px"
	 viewBox="0 0 52.4 72" style="enable-background:new 0 0 52.4 72;" xml:space="preserve">
<style type="text/css">
	.st0{display:none;}
	.st1{fill:#40B293;}
</style>
<g id="Layer_1" class="st0">
	
		<image style="display:inline;overflow:visible;" width="404" height="524" xlink:href="../../../../../../../Desktop/Screenshot 2019-04-01 at 6.19.55 PM.png"  transform="matrix(0.1616 0 0 0.1616 -7.535 -7.4411)">
	</image>
</g>
<g id="Layer_2">
	<path class="st1" d="M6.8,37.6l6.8-4.5c0,0,0-5.3,0-7C13.6,25,13.6,12,26,12S38.5,24.7,38.5,26c0,1,0,4.7,0,4.7l7.2-4.7l6.8,4.7
		c0,0,0-3.5,0-4.7c0-5.4-3.5-26-26.4-26C0.3,0,0.3,24.9,0.3,26c0,1.8,0,7,0,7L6.8,37.6z"/>
	<path class="st1" d="M45.6,34.4l-6.8,4.5c0,0,0,5.3,0,7c0,0.9,0,13.9-12.4,13.9S14,47.2,14,46c0-1,0-4.7,0-4.7L6.8,46L0,41.3
		c0,0,0,3.5,0,4.7c0,5.4,3.5,26,26.4,26C52.1,72,52.1,47,52.1,46c0-1.8,0-7,0-7L45.6,34.4z"/>
</g>
</svg>
