<?xml version="1.0" encoding="utf-8"?>
<!-- Generator: Adobe Illustrator 21.1.0, SVG Export Plug-In . SVG Version: 6.00 Build 0)  -->
<svg version="1.1" id="Layer_1" xmlns="http://www.w3.org/2000/svg" xmlns:xlink="http://www.w3.org/1999/xlink" x="0px" y="0px"
	 viewBox="0 0 800 350" style="enable-background:new 0 0 800 350;" xml:space="preserve">
<style type="text/css">
	.st0{fill:none;stroke:#000000;}
</style>
<path class="st0" d="M4.1,0.3c2.6,28,27.2,50,54,58.7s55.7,7,83.8,5.7c28.1-1.2,57.3-1.6,83.2,9.4c29.8,12.7,51.4,38.9,78,57.4
	c46.8,32.5,109.6,39.4,163.4,20.7c13.5-4.7,26.5-10.9,40.3-14.9c12.2-3.6,24.9-5.4,37.6-5.8c51.8-1.8,102.2,19.7,144.1,50.3
	s76.3,69.9,110.4,108.9"/>
</svg>
